{"failedCount":0,"prefixedPath":"classpath:apiServices\/SecondfeatureTest.feature","packageQualifiedName":"apiServices.SecondfeatureTest","loopIndex":-1,"relativePath":"apiServices\/SecondfeatureTest.feature","scenarioResults":[{"sectionIndex":0,"stepResults":[{"result":{"nanos":452500,"millis":0.4525,"status":"passed"},"step":{"line":6,"prefix":"Given","index":0,"text":"url 'https:\/\/reqres.in\/api\/users?delay=3'"},"stepLog":"10:55:49.265 karate.env system property was: null \n"},{"result":{"nanos":3829460000,"millis":3829.46,"status":"passed"},"step":{"line":7,"prefix":"When","index":1,"text":"method GET"},"stepLog":"10:55:49.442 request:\n1 > GET https:\/\/reqres.in\/api\/users?delay=3\n1 > Host: reqres.in\n1 > Connection: Keep-Alive\n1 > User-Agent: Apache-HttpClient\/4.5.13 (Java\/17.0.5)\n1 > Accept-Encoding: gzip,deflate\n\n\n10:55:53.088 response time in milliseconds: 3644\n1 < 200\n1 < Date: Wed, 28 Dec 2022 05:25:51 GMT\n1 < Content-Type: application\/json; charset=utf-8\n1 < Transfer-Encoding: chunked\n1 < Connection: keep-alive\n1 < X-Powered-By: Express\n1 < Access-Control-Allow-Origin: *\n1 < Etag: W\/\"3e4-2RLXvr5wTg9YQ6aH95CkYoFNuO8\"\n1 < Via: 1.1 vegur\n1 < CF-Cache-Status: DYNAMIC\n1 < Report-To: {\"endpoints\":[{\"url\":\"https:\\\/\\\/a.nel.cloudflare.com\\\/report\\\/v3?s=9ikhhSvYlW8zMXs9kjaZvBpE%2B5d61H8SNqGiQjQ5GpzZjAQCoOkMpZTkzdI%2B5FDeyR5Seg93ns3ftdqhfmNN8Fo7rR%2F6f%2B5rschbt1LbUvYv8NfNBeGSTDwBjg%3D%3D\"}],\"group\":\"cf-nel\",\"max_age\":604800}\n1 < NEL: {\"success_fraction\":0,\"report_to\":\"cf-nel\",\"max_age\":604800}\n1 < Server: cloudflare\n1 < CF-RAY: 7807e0a26dd8f45e-BOM\n{\"page\":1,\"per_page\":6,\"total\":12,\"total_pages\":2,\"data\":[{\"id\":1,\"email\":\"george.bluth@reqres.in\",\"first_name\":\"George\",\"last_name\":\"Bluth\",\"avatar\":\"https:\/\/reqres.in\/img\/faces\/1-image.jpg\"},{\"id\":2,\"email\":\"janet.weaver@reqres.in\",\"first_name\":\"Janet\",\"last_name\":\"Weaver\",\"avatar\":\"https:\/\/reqres.in\/img\/faces\/2-image.jpg\"},{\"id\":3,\"email\":\"emma.wong@reqres.in\",\"first_name\":\"Emma\",\"last_name\":\"Wong\",\"avatar\":\"https:\/\/reqres.in\/img\/faces\/3-image.jpg\"},{\"id\":4,\"email\":\"eve.holt@reqres.in\",\"first_name\":\"Eve\",\"last_name\":\"Holt\",\"avatar\":\"https:\/\/reqres.in\/img\/faces\/4-image.jpg\"},{\"id\":5,\"email\":\"charles.morris@reqres.in\",\"first_name\":\"Charles\",\"last_name\":\"Morris\",\"avatar\":\"https:\/\/reqres.in\/img\/faces\/5-image.jpg\"},{\"id\":6,\"email\":\"tracey.ramos@reqres.in\",\"first_name\":\"Tracey\",\"last_name\":\"Ramos\",\"avatar\":\"https:\/\/reqres.in\/img\/faces\/6-image.jpg\"}],\"support\":{\"url\":\"https:\/\/reqres.in\/#support-heading\",\"text\":\"To keep ReqRes free, contributions towards server costs are appreciated!\"}}\n\n"},{"result":{"nanos":13800,"millis":0.0138,"status":"passed"},"step":{"line":8,"prefix":"Then","index":2,"text":"status 200"}}],"line":4,"description":"","durationMillis":3829.9263,"failed":false,"tags":["Video"],"executorName":"main","name":"Test the request with delay","startTime":1672205149264,"refId":"[1:4]","endTime":1672205153096,"exampleIndex":-1}],"callDepth":0,"name":"Fetch the user details by delay","description":"","resultDate":"2022-12-28 10:55:53 am","durationMillis":3829.9263,"passedCount":1}