{"failedCount":0,"prefixedPath":"classpath:apiServices\/SecondfeatureTest.feature","packageQualifiedName":"apiServices.SecondfeatureTest","loopIndex":-1,"relativePath":"apiServices\/SecondfeatureTest.feature","scenarioResults":[{"sectionIndex":0,"stepResults":[{"result":{"nanos":350699,"millis":0.350699,"status":"passed"},"step":{"line":6,"prefix":"Given","index":0,"text":"url 'https:\/\/reqres.in\/api\/users?delay=3'"},"stepLog":"09:49:13.517 karate.env system property was: null \n"},{"result":{"nanos":3514865200,"millis":3514.8652,"status":"passed"},"step":{"line":7,"prefix":"When","index":1,"text":"method GET"},"stepLog":"09:49:13.519 request:\n1 > GET https:\/\/reqres.in\/api\/users?delay=3\n1 > Host: reqres.in\n1 > Connection: Keep-Alive\n1 > User-Agent: Apache-HttpClient\/4.5.13 (Java\/17.0.5)\n1 > Accept-Encoding: gzip,deflate\n\n\n09:49:17.031 response time in milliseconds: 3512\n1 < 200\n1 < Date: Thu, 29 Dec 2022 04:19:17 GMT\n1 < Content-Type: application\/json; charset=utf-8\n1 < Transfer-Encoding: chunked\n1 < Connection: keep-alive\n1 < X-Powered-By: Express\n1 < Access-Control-Allow-Origin: *\n1 < Etag: W\/\"3e4-2RLXvr5wTg9YQ6aH95CkYoFNuO8\"\n1 < Via: 1.1 vegur\n1 < CF-Cache-Status: DYNAMIC\n1 < Report-To: {\"endpoints\":[{\"url\":\"https:\\\/\\\/a.nel.cloudflare.com\\\/report\\\/v3?s=cC7zV8n7kS0igOalwg18gKEj%2FOzg4KuJwcGWi7awPLVXn3BQKSxxM2SC%2FwUAIB2itjq8itluWhohgWi5KdiKEjglvzZRGtnAzt7vXCGAebLJh3Kvc5PWGHLpyQ%3D%3D\"}],\"group\":\"cf-nel\",\"max_age\":604800}\n1 < NEL: {\"success_fraction\":0,\"report_to\":\"cf-nel\",\"max_age\":604800}\n1 < Server: cloudflare\n1 < CF-RAY: 780fbc7a292ef3d9-BOM\n{\"page\":1,\"per_page\":6,\"total\":12,\"total_pages\":2,\"data\":[{\"id\":1,\"email\":\"george.bluth@reqres.in\",\"first_name\":\"George\",\"last_name\":\"Bluth\",\"avatar\":\"https:\/\/reqres.in\/img\/faces\/1-image.jpg\"},{\"id\":2,\"email\":\"janet.weaver@reqres.in\",\"first_name\":\"Janet\",\"last_name\":\"Weaver\",\"avatar\":\"https:\/\/reqres.in\/img\/faces\/2-image.jpg\"},{\"id\":3,\"email\":\"emma.wong@reqres.in\",\"first_name\":\"Emma\",\"last_name\":\"Wong\",\"avatar\":\"https:\/\/reqres.in\/img\/faces\/3-image.jpg\"},{\"id\":4,\"email\":\"eve.holt@reqres.in\",\"first_name\":\"Eve\",\"last_name\":\"Holt\",\"avatar\":\"https:\/\/reqres.in\/img\/faces\/4-image.jpg\"},{\"id\":5,\"email\":\"charles.morris@reqres.in\",\"first_name\":\"Charles\",\"last_name\":\"Morris\",\"avatar\":\"https:\/\/reqres.in\/img\/faces\/5-image.jpg\"},{\"id\":6,\"email\":\"tracey.ramos@reqres.in\",\"first_name\":\"Tracey\",\"last_name\":\"Ramos\",\"avatar\":\"https:\/\/reqres.in\/img\/faces\/6-image.jpg\"}],\"support\":{\"url\":\"https:\/\/reqres.in\/#support-heading\",\"text\":\"To keep ReqRes free, contributions towards server costs are appreciated!\"}}\n\n"},{"result":{"nanos":7400,"millis":0.0074,"status":"passed"},"step":{"line":8,"prefix":"Then","index":2,"text":"status 200"}}],"line":4,"description":"","durationMillis":3515.223299,"failed":false,"tags":["Video"],"executorName":"main","name":"Test the request with delay","startTime":1672287553515,"refId":"[1:4]","endTime":1672287557032,"exampleIndex":-1}],"callDepth":0,"name":"Fetch the user details by delay","description":"","resultDate":"2022-12-29 09:49:17 am","durationMillis":3515.223299,"passedCount":1}